{
    "paths": [
        "img/1/background-uno.jpg",
        "img/1/element-exp1.png",
        "img/1/element-exp2.png",
        "img/1/element-exp3.png",
        "img/1/element-exp4.png",
        "img/1/home-back.png",
        "img/2/background-uno.jpg",
        "img/2/city.jpg",
        "img/2/family.jpg",
        "img/2/int_espacio.png",
        "img/2/int_per.png",
        "img/2/stairs.jpg",
        "img/2/work.jpg",
        "img/3/slide3_item_1.png",
        "img/3/slide3_item_2.png",
        "img/3/slide3_item_3.png",
        "img/3/slide3_item_4.png",
        "img/3/slide3_item_5.png",
        "img/3/slide3_item_6.png",
        "img/3/slide3_item_7.png",
        "img/3/slide3_item_8.png",
        "img/3/slide3_item_9.png",
        "img/7/cara_01.png",
        "img/7/cara_02.png",
        "img/7/cara_03.png",
        "img/7/cara_04.png",
        "img/7/cara_05.png",
        "img/7/cara_06.png",
        "img/7/cara_07.png",
        "img/7/fondo_s7.png",
        "img/8/personaje_s8.png",
        "img/esap_logo/F1066E29760DBE44.png",
        "img/esap_logo/F1066E29760DBE45.png",
        "img/esap_logo/F1066E29760DBE46.png",
        "img/esap_logo/F1066E29760DBE47.png",
        "img/esap_logo/F1066E29760DBE4B.png",
        "img/esap_logo/F1066E29760DBE4C.png",
        "img/esap_logo/F1066E29760DBE4D.png",
        "img/esap_logo/F1066E29760DBE4F.png",
        "img/favicon.png",
        "img/icon-activity.png",
        "img/oka-id.png",
        "img/rotate_cursor.png",
        "img/rotate_device.png"
    ]
}