<?xml version="1.0" encoding="utf-8"?>
<!-- Generator: Adobe Illustrator 22.0.1, SVG Export Plug-In . SVG Version: 6.00 Build 0)  -->
<svg version="1.1" id="Layer_1" xmlns="http://www.w3.org/2000/svg" xmlns:xlink="http://www.w3.org/1999/xlink" x="0px" y="0px"
	 viewBox="0 0 583.1 555.1" style="enable-background:new 0 0 583.1 555.1;" xml:space="preserve">
<style type="text/css">
	.st0{fill:#FFB400;}
	.st1{fill:#FF8025;}
	.st2{fill:#76FFD9;}
	.st3{opacity:0.2;enable-background:new    ;}
	.st4{clip-path:url(#SVGID_2_);fill:#FFFFFF;}
	.st5{clip-path:url(#SVGID_4_);fill:#FFC029;}
	.st6{fill:#FFC029;}
	.st7{fill:#00C395;}
	.st8{fill:#6D2F06;}
	.st9{fill:#381806;}
	.st10{opacity:0.1;enable-background:new    ;}
	.st11{clip-path:url(#SVGID_6_);}
	.st12{clip-path:url(#SVGID_8_);fill:#FFFFFF;}
	.st13{clip-path:url(#SVGID_10_);fill:url(#SVGID_11_);}
	.st14{fill:#FFD54F;}
	.st15{clip-path:url(#SVGID_13_);}
	.st16{clip-path:url(#SVGID_15_);fill:#FFC029;}
</style>
<g>
	<g>
		<g>
			<path class="st0" d="M449.9,27.7H133.4C63.7,27.7,6.3,62.4,0.2,106.6h582.9C576.9,62.4,519.6,27.7,449.9,27.7z"/>
			<path class="st1" d="M449.9,43.5c56.2,0,102.2,27.7,108.3,63.1H510c-4.3-26.1-29.8-48.8-66.8-63.1H449.9z"/>
			<path class="st2" d="M352.5,43.5c68.8,0,125.6,27.7,133,63.1H389v-7.9c0-4.4-5.4-7.9-12.2-7.9H206.4c-6.7,0-12.2,3.5-12.2,7.9
				v7.9H97.8c7.4-35.4,64.2-63.1,133-63.1H352.5z"/>
			<g class="st3">
				<g>
					<g>
						<g>
							<defs>
								<rect id="SVGID_1_" x="97.8" y="43.5" width="387.7" height="63.1"/>
							</defs>
							<clipPath id="SVGID_2_">
								<use xlink:href="#SVGID_1_"  style="overflow:visible;"/>
							</clipPath>
							<path class="st4" d="M230.8,51.4h121.7c68.8,0,125.6,24.2,133,55.2c-7.4-35.4-64.2-63.1-133-63.1H230.8
								c-68.8,0-125.6,27.7-133,63.1C105.2,75.6,162,51.4,230.8,51.4"/>
						</g>
					</g>
				</g>
			</g>
			<path class="st1" d="M133.4,43.5h6.7c-37.1,14.3-62.5,37-66.8,63.1H25.1C31.3,71.2,77.2,43.5,133.4,43.5"/>
			<g class="st3">
				<g>
					<g>
						<g>
							<defs>
								<rect id="SVGID_3_" x="25.1" y="43.5" width="115" height="63.1"/>
							</defs>
							<clipPath id="SVGID_4_">
								<use xlink:href="#SVGID_3_"  style="overflow:visible;"/>
							</clipPath>
							<path class="st5" d="M137.2,44.8c1-0.4,1.9-0.9,2.9-1.3h-6.7c-56.2,0-102.1,27.7-108.3,63.1h24.3
								C54.8,75.7,90.6,50.6,137.2,44.8"/>
						</g>
					</g>
				</g>
			</g>
			<path class="st6" d="M446.1,44.8c-1-0.4-1.9-0.9-3-1.3h6.7c56.2,0,102.2,27.7,108.3,63.1h-24.3C528.4,75.7,492.6,50.6,446.1,44.8
				"/>
			<path class="st7" d="M182.1,75h73c6.7,0,12.2-3.5,12.2-7.9s-5.4-7.9-12.2-7.9h-73c-6.7,0-12.2,3.5-12.2,7.9S175.4,75,182.1,75"/>
			<path class="st7" d="M303.8,75h24.3c6.7,0,12.2-3.5,12.2-7.9s-5.4-7.9-12.2-7.9h-24.3c-6.7,0-12.2,3.5-12.2,7.9
				S297.1,75,303.8,75"/>
		</g>
	</g>
	<g>
		<polygon class="st8" points="512.6,229.7 70.7,229.7 0.2,106.6 583.1,106.6 		"/>
		<polygon class="st9" points="512.6,229.7 479.6,229.7 504.9,106.6 583.1,106.6 		"/>
		<polygon class="st1" points="512.6,229.7 499.3,229.7 569.1,106.6 583.1,106.6 		"/>
		<polygon class="st9" points="70.7,229.7 103.7,229.7 78.4,106.6 0.2,106.6 		"/>
		<polygon class="st1" points="70.7,229.7 84,229.7 14.1,106.6 0.2,106.6 		"/>
	</g>
</g>
<path class="st0" d="M22.2,478.2c0,24.8,20.1,44.9,44.9,44.9h449c24.8,0,44.9-20.2,44.9-44.9V242.4c0-3.8-0.2-7.5-0.6-11.2H22.8
	c-0.3,3.7-0.6,7.4-0.6,11.2C22.2,242.4,22.2,478.2,22.2,478.2z"/>
<g>
	<path class="st2" d="M224.3,309.8v-78.6H359v78.6c0,18.6-15.1,33.7-33.7,33.7H258C239.4,343.5,224.3,328.4,224.3,309.8"/>
	<g class="st10">
		<g>
			<g>
				<g>
					<defs>
						<rect id="SVGID_5_" x="302.9" y="231.2" width="56.1" height="112.3"/>
					</defs>
					<clipPath id="SVGID_6_">
						<use xlink:href="#SVGID_5_"  style="overflow:visible;"/>
					</clipPath>
					<path class="st11" d="M336.5,231.2v78.6c0,18.6-15.1,33.7-33.7,33.7h22.4c18.6,0,33.7-15.1,33.7-33.7v-78.6L336.5,231.2
						L336.5,231.2z"/>
				</g>
			</g>
		</g>
	</g>
	<g class="st3">
		<g>
			<g>
				<g>
					<defs>
						<rect id="SVGID_7_" x="224.3" y="231.2" width="56.1" height="112.3"/>
					</defs>
					<clipPath id="SVGID_8_">
						<use xlink:href="#SVGID_7_"  style="overflow:visible;"/>
					</clipPath>
					<path class="st12" d="M246.7,309.8v-78.6h-22.5v78.6c0,18.6,15.1,33.7,33.7,33.7h22.4C261.9,343.5,246.7,328.4,246.7,309.8"/>
				</g>
			</g>
		</g>
	</g>
	<path class="st7" d="M280.4,295.1v14.7c0,6.2,5,11.2,11.2,11.2s11.2-5,11.2-11.2v-14.7c6.6-3.9,11.2-10.8,11.2-19
		c0-12.4-10.1-22.5-22.4-22.5c-12.4,0-22.4,10.1-22.4,22.5C269.2,284.3,273.8,291.2,280.4,295.1"/>
</g>
<g>
	<g>
		<g>
			<defs>
				<path id="SVGID_9_" d="M324.7,455.8l44.9,44.9h101.7v-44.9H324.7z M380.3,321c-5.2,25.6-27.9,44.9-55,44.9H258
					c-15.4,0-29.2-6.4-39.3-16.4l-0.1,0.1l83.6,83.6h169.1V321H380.3z M381.4,253.7v44.9h83.2l-44.9-44.9L381.4,253.7L381.4,253.7z"
					/>
			</defs>
			<clipPath id="SVGID_10_">
				<use xlink:href="#SVGID_9_"  style="overflow:visible;"/>
			</clipPath>
			
				<linearGradient id="SVGID_11_" gradientUnits="userSpaceOnUse" x1="-760.0661" y1="417.7682" x2="-754.5673" y2="417.7682" gradientTransform="matrix(36.7074 36.7074 -36.7074 36.7074 43503.3438 12865.2256)">
				<stop  offset="0" style="stop-color:#000000"/>
				<stop  offset="1" style="stop-color:#000000"/>
			</linearGradient>
			<polygon class="st13" points="95.1,377.2 344.9,627 594.7,377.2 344.9,127.3 			"/>
		</g>
	</g>
</g>
<rect x="112" y="253.7" class="st14" width="89.8" height="44.9"/>
<path class="st2" d="M258,366h67.3c27.1,0,49.8-19.3,55-44.9h90.9v112.3H112v-44.9h56.1c6.2,0,11.2-5,11.2-11.2s-5-11.2-11.2-11.2
	H112V321h91C208.2,346.6,230.9,366,258,366"/>
<rect x="112" y="455.8" class="st14" width="359.2" height="44.9"/>
<rect x="112" y="489.4" class="st1" width="359.2" height="11.2"/>
<g class="st10">
	<g>
		<g>
			<g>
				<defs>
					<rect id="SVGID_12_" x="112" y="422.1" width="359.2" height="11.2"/>
				</defs>
				<clipPath id="SVGID_13_">
					<use xlink:href="#SVGID_12_"  style="overflow:visible;"/>
				</clipPath>
				<rect x="112" y="422.1" class="st15" width="359.2" height="11.2"/>
			</g>
		</g>
	</g>
</g>
<rect x="381.4" y="253.7" class="st14" width="89.8" height="44.9"/>
<rect x="112" y="287.4" class="st1" width="89.8" height="11.2"/>
<rect x="381.4" y="287.4" class="st1" width="89.8" height="11.2"/>
<path class="st1" d="M44.7,478.2V253.7h44.9v247H67.1C54.7,500.7,44.7,490.6,44.7,478.2"/>
<g class="st3">
	<g>
		<g>
			<g>
				<defs>
					<rect id="SVGID_14_" x="44.7" y="253.7" width="44.9" height="247"/>
				</defs>
				<clipPath id="SVGID_15_">
					<use xlink:href="#SVGID_14_"  style="overflow:visible;"/>
				</clipPath>
				<path class="st16" d="M67.1,478.2V253.7H44.7v224.5c0,12.4,10.1,22.5,22.5,22.5h22.4C77.2,500.7,67.1,490.6,67.1,478.2"/>
			</g>
		</g>
	</g>
</g>
<path class="st1" d="M538.6,478.2c0,12.4-10.1,22.5-22.5,22.5h-22.4v-247h44.9V478.2z"/>
<path class="st7" d="M235.5,410.8h67.4c6.2,0,11.2-5,11.2-11.2s-5-11.2-11.2-11.2h-67.4c-6.2,0-11.2,5-11.2,11.2
	S229.3,410.8,235.5,410.8"/>
<path class="st7" d="M392.7,388.4h44.9c6.2,0,11.2-5,11.2-11.2s-5-11.2-11.2-11.2h-44.9c-6.2,0-11.2,5-11.2,11.2
	C381.4,383.4,386.5,388.4,392.7,388.4"/>
<path class="st6" d="M516.2,478.2V253.7h22.5v224.5c0,12.4-10.1,22.5-22.5,22.5h-22.4C506.1,500.7,516.2,490.6,516.2,478.2"/>
</svg>
