{
  "shortName": "CISP_AEPS",
  "unit": 4,
  "courseTitle": "ACREDITACIÓN PARA ENTIDADES PRESTADORAS DE SALUD",
  "ovaTitle": "Estándar de direccionamiento y gerencia",
  "remoteURL": "http://cisp.bitpointer.co"
}
