{
    "groups": [{
        "group": "Director Nacional (E)",
        "members": [{
            "lastName": "Chamorro Ruales",
            "firstName": "Giovany Javier"
        }]
    }, {
        "group": "Subdirectora Académica",
        "members": [{
            "lastName": "Ramírez Martínez",
            "firstName": "Claudia Iné"
        }]
    }, {
        "group": "Subdirector de Proyección Institucional",
        "members": [{
            "lastName": "Cruz Martínez",
            "firstName": "Alexánder"
        }]
    }, {
        "group": "Jefe Departamento de Capacitaciónl",
        "members": [{
            "lastName": "López Aragón",
            "firstName": "José Alberto"
        }]
    }, {
        "group": "Subdirector de Alto Gobierno",
        "members": [{
            "lastName": "Bernal Sánchez",
            "firstName": "Oswaldo"
        }]
    }]
}
